 -------------------------
100 mètres = 1640 pixels

rdc : 108.60 x 63.35
etage_1 : 109.15 x 49.15
etage_2 : 114.63 x 52.01
agence : 73.78 x 36.04



--------------------------
30 mètres = 870 pixels

salle_info : 35.07 x 35.66



--------------------------
100 mètres = 250 pixels

Plan Site : 375.6 x 195.2

